%!PS-Adobe-3.0 EPSF-3.0
%%Creator: cairo 1.14.6 (http://cairographics.org)
%%CreationDate: Mon Aug 22 11:52:55 2016
%%Pages: 1
%%DocumentData: Clean7Bit
%%LanguageLevel: 2
%%BoundingBox: 0 -1 267 79
%%EndComments
%%BeginProlog
save
50 dict begin
/q { gsave } bind def
/Q { grestore } bind def
/cm { 6 array astore concat } bind def
/w { setlinewidth } bind def
/J { setlinecap } bind def
/j { setlinejoin } bind def
/M { setmiterlimit } bind def
/d { setdash } bind def
/m { moveto } bind def
/l { lineto } bind def
/c { curveto } bind def
/h { closepath } bind def
/re { exch dup neg 3 1 roll 5 3 roll moveto 0 rlineto
      0 exch rlineto 0 rlineto closepath } bind def
/S { stroke } bind def
/f { fill } bind def
/f* { eofill } bind def
/n { newpath } bind def
/W { clip } bind def
/W* { eoclip } bind def
/BT { } bind def
/ET { } bind def
/pdfmark where { pop globaldict /?pdfmark /exec load put }
    { globaldict begin /?pdfmark /pop load def /pdfmark
    /cleartomark load def end } ifelse
/BDC { mark 3 1 roll /BDC pdfmark } bind def
/EMC { mark /EMC pdfmark } bind def
/cairo_store_point { /cairo_point_y exch def /cairo_point_x exch def } def
/Tj { show currentpoint cairo_store_point } bind def
/TJ {
  {
    dup
    type /stringtype eq
    { show } { -0.001 mul 0 cairo_font_matrix dtransform rmoveto } ifelse
  } forall
  currentpoint cairo_store_point
} bind def
/cairo_selectfont { cairo_font_matrix aload pop pop pop 0 0 6 array astore
    cairo_font exch selectfont cairo_point_x cairo_point_y moveto } bind def
/Tf { pop /cairo_font exch def /cairo_font_matrix where
      { pop cairo_selectfont } if } bind def
/Td { matrix translate cairo_font_matrix matrix concatmatrix dup
      /cairo_font_matrix exch def dup 4 get exch 5 get cairo_store_point
      /cairo_font where { pop cairo_selectfont } if } bind def
/Tm { 2 copy 8 2 roll 6 array astore /cairo_font_matrix exch def
      cairo_store_point /cairo_font where { pop cairo_selectfont } if } bind def
/g { setgray } bind def
/rg { setrgbcolor } bind def
/d1 { setcachedevice } bind def
%%EndProlog
%%BeginSetup
%%EndSetup
%%Page: 1 1
%%BeginPageSetup
%%PageBoundingBox: 0 -1 267 79
%%EndPageSetup
q 0 -1 267 80 rectclip q
0 g
0.498132 w
1 J
0 j
[] 0.0 d
10 M 0.547 49.26 m 266.238 49.26 l S
0.547 54.241 m 266.238 54.241 l S
0.547 59.217 m 266.238 59.217 l S
0.547 64.206 m 266.238 64.206 l S
0.547 69.186 m 266.238 69.186 l S
0.946452 w
0 J
210.488 3.178 m 210.488 25.596 l S
91.578 3.178 m 91.578 25.596 l S
146.773 3.178 m 146.773 25.596 l S
210.488 49.26 m 210.488 69.186 l S
266.016 49.26 m 266.016 69.186 l S
91.578 49.26 m 91.578 69.186 l S
266.016 3.178 m 266.016 25.596 l S
146.773 49.26 m 146.773 69.186 l S
0.498132 w
1 J
0.547 3.178 m 266.238 3.178 l S
0.547 10.655 m 266.238 10.655 l S
0.547 18.124 m 266.238 18.124 l S
0.547 25.596 m 266.238 25.596 l S
0.996264 w
150.586 44.28 m 159.426 44.28 l S
199.449 54.502 m 198.637 54.502 197.84 54.206 197.121 53.784 c 196.184 
53.221 195.074 52.252 195.074 50.815 c 195.074 49.581 196.137 49.002 197.246
 49.002 c 198.059 49.002 198.855 49.299 199.574 49.721 c 200.512 50.284 
201.621 51.252 201.621 52.69 c 201.621 53.924 200.574 54.502 199.449 54.502
 c h
199.449 54.502 m f
185 52.01 m 184.188 52.01 183.391 51.713 182.672 51.291 c 181.734 50.729
 180.625 49.76 180.625 48.323 c 180.625 47.088 181.688 46.51 182.797 46.51
 c 183.609 46.51 184.406 46.807 185.125 47.229 c 186.062 47.791 187.172 
48.76 187.172 50.198 c 187.172 51.432 186.125 52.01 185 52.01 c h
185 52.01 m f
1 g
181.121 21.272 4.93 -6.293 re f
0 g
183.621 21.307 m 182.309 21.307 181.355 19.979 181.355 18.166 c 181.355
 16.354 182.309 15.026 183.621 15.026 c 184.902 15.026 185.871 16.354 185.871
 18.12 c 185.871 19.151 185.637 19.916 185.121 20.557 c 184.715 21.057 184.199
 21.307 183.621 21.307 c h
183.605 20.854 m 183.871 20.854 184.074 20.698 184.184 20.432 c 184.293
 20.135 184.355 19.198 184.355 18.151 c 184.355 17.26 184.293 16.307 184.215
 16.01 c 184.121 15.666 183.902 15.479 183.605 15.479 c 183.34 15.479 183.137
 15.635 183.043 15.916 c 182.934 16.198 182.855 17.151 182.855 18.166 c 
182.855 19.057 182.918 20.026 182.996 20.323 c 183.09 20.682 183.309 20.854
 183.605 20.854 c h
183.605 20.854 m f
0.398506 w
0 J
1 j
186.734 66.495 0.25 -16.102 re S
186.734 66.495 0.25 -16.102 re f
1 g
195.57 21.272 4.934 -6.293 re f
0 g
198.805 21.135 m 198.492 21.135 l 197.961 20.729 197.32 20.557 196.289 
20.541 c 196.289 20.057 l 196.664 20.057 l 197.43 20.041 197.43 20.041 197.43
 19.323 c 197.43 16.229 l 197.43 15.698 197.43 15.651 197.367 15.573 c 197.289
 15.479 197.117 15.448 196.648 15.448 c 196.367 15.448 l 196.367 14.979 
l 199.836 14.979 l 199.836 15.448 l 199.57 15.448 l 199.117 15.448 198.93
 15.479 198.867 15.573 c 198.805 15.651 198.805 15.682 198.805 16.229 c 
h
198.805 21.135 m f
201.184 68.983 0.25 -16.102 re S
201.184 68.983 0.25 -16.102 re f
170.551 49.518 m 169.738 49.518 168.941 49.221 168.223 48.799 c 167.285
 48.237 166.176 47.268 166.176 45.831 c 166.176 44.596 167.238 44.018 168.348
 44.018 c 169.16 44.018 169.957 44.315 170.676 44.737 c 171.613 45.299 172.723
 46.268 172.723 47.706 c 172.723 48.94 171.676 49.518 170.551 49.518 c h
170.551 49.518 m f
1 g
166.672 13.799 4.93 -6.293 re f
0 g
170.828 9.991 m 170.734 9.553 l 170.656 9.209 170.594 9.1 170.531 9.053
 c 170.438 8.991 170.422 8.991 169.875 8.991 c 168.188 8.991 l 168.5 9.241
 168.719 9.413 169.062 9.631 c 170.281 10.413 170.547 10.616 170.797 10.944
 c 171.094 11.334 171.266 11.788 171.266 12.209 c 171.266 13.131 170.359
 13.834 169.125 13.834 c 167.938 13.834 167.031 13.069 167.031 12.084 c 
167.031 11.475 167.375 11.084 167.891 11.084 c 168.344 11.084 168.625 11.366
 168.625 11.819 c 168.625 12.194 168.469 12.413 168.062 12.6 c 167.969 12.647
 167.922 12.694 167.922 12.772 c 167.922 13.053 168.391 13.35 168.828 13.35
 c 169.438 13.35 169.781 12.975 169.781 12.319 c 169.781 11.6 169.516 11.084
 168.594 10.1 c 167.609 9.084 167.266 8.678 166.844 8.053 c 166.844 7.647
 l 167.062 7.663 167.172 7.678 167.297 7.678 c 170.562 7.678 l 170.703 7.678
 170.828 7.663 171.094 7.647 c 171.297 9.991 l h
170.828 9.991 m f
172.285 64.002 0.25 -16.098 re S
172.285 64.002 0.25 -16.098 re f
250.625 55.538 m 250.625 55.334 250.562 55.131 250.422 54.975 c 250.016
 54.475 249.078 53.897 248.344 53.428 c 247.609 52.944 246.672 52.334 246.062
 52.147 c 245.984 52.131 245.891 52.131 245.812 52.131 c 245.406 52.131 
244.984 52.475 244.984 52.944 c 244.984 53.147 245.062 53.35 245.203 53.506
 c 245.594 54.006 246.531 54.584 247.266 55.053 c 248.016 55.538 248.922
 56.147 249.547 56.334 c 249.625 56.35 249.703 56.35 249.781 56.35 c 250.203
 56.35 250.625 56.006 250.625 55.538 c h
249.609 56.975 m 248.109 56.975 246.906 56.694 245.844 55.975 c 245.188
 55.538 244.797 54.819 244.562 54.069 c 244.438 53.678 244.344 53.319 244.344
 52.944 c 244.344 51.928 245.078 51.491 246.016 51.491 c 247.516 51.491 
248.688 51.788 249.766 52.506 c 250.422 52.944 250.812 53.663 251.062 54.413
 c 251.172 54.803 251.25 55.163 251.25 55.538 c 251.25 56.553 250.547 56.975
 249.609 56.975 c h
249.609 56.975 m f
1 g
244.836 6.327 4.934 -6.293 re f
0 g
247.336 6.362 m 246.023 6.362 245.07 5.034 245.07 3.221 c 245.07 1.409 
246.023 0.081 247.336 0.081 c 248.617 0.081 249.586 1.409 249.586 3.174 
c 249.586 4.206 249.352 4.971 248.836 5.612 c 248.43 6.112 247.914 6.362
 247.336 6.362 c h
247.32 5.909 m 247.586 5.909 247.789 5.752 247.898 5.487 c 248.008 5.19
 248.07 4.252 248.07 3.206 c 248.07 2.315 248.008 1.362 247.93 1.065 c 247.836
 0.721 247.617 0.534 247.32 0.534 c 247.055 0.534 246.852 0.69 246.758 0.971
 c 246.648 1.252 246.57 2.206 246.57 3.221 c 246.57 4.112 246.633 5.081 
246.711 5.377 c 246.805 5.737 247.023 5.909 247.32 5.909 c h
247.32 5.909 m f
250.816 71.471 0.25 -15.73 re S
250.816 71.471 0.25 -15.73 re f
1 g
215.938 6.327 4.93 -6.293 re f
0 g
218.438 6.362 m 217.125 6.362 216.172 5.034 216.172 3.221 c 216.172 1.409
 217.125 0.081 218.438 0.081 c 219.719 0.081 220.688 1.409 220.688 3.174
 c 220.688 4.206 220.453 4.971 219.938 5.612 c 219.531 6.112 219.016 6.362
 218.438 6.362 c h
218.422 5.909 m 218.688 5.909 218.891 5.752 219 5.487 c 219.109 5.19 219.172
 4.252 219.172 3.206 c 219.172 2.315 219.109 1.362 219.031 1.065 c 218.938
 0.721 218.719 0.534 218.422 0.534 c 218.156 0.534 217.953 0.69 217.859 
0.971 c 217.75 1.252 217.672 2.206 217.672 3.221 c 217.672 4.112 217.734
 5.081 217.812 5.377 c 217.906 5.737 218.125 5.909 218.422 5.909 c h
218.422 5.909 m f
221.551 71.475 0.25 -16.102 re S
221.551 71.475 0.25 -16.102 re f
219.816 56.991 m 219.004 56.991 218.207 56.694 217.488 56.272 c 216.551
 55.709 215.441 54.741 215.441 53.303 c 215.441 52.069 216.504 51.491 217.613
 51.491 c 218.426 51.491 219.223 51.788 219.941 52.209 c 220.879 52.772 
221.988 53.741 221.988 55.178 c 221.988 56.413 220.941 56.991 219.816 56.991
 c h
219.816 56.991 m f
234.27 56.991 m 233.457 56.991 232.66 56.694 231.941 56.272 c 231.004 55.709
 229.895 54.741 229.895 53.303 c 229.895 52.069 230.957 51.491 232.066 51.491
 c 232.879 51.491 233.676 51.788 234.395 52.209 c 235.332 52.772 236.441
 53.741 236.441 55.178 c 236.441 56.413 235.395 56.991 234.27 56.991 c h
234.27 56.991 m f
1 g
230.387 6.327 4.93 -6.293 re f
0 g
232.887 6.362 m 231.574 6.362 230.621 5.034 230.621 3.221 c 230.621 1.409
 231.574 0.081 232.887 0.081 c 234.168 0.081 235.137 1.409 235.137 3.174
 c 235.137 4.206 234.902 4.971 234.387 5.612 c 233.98 6.112 233.465 6.362
 232.887 6.362 c h
232.871 5.909 m 233.137 5.909 233.34 5.752 233.449 5.487 c 233.559 5.19
 233.621 4.252 233.621 3.206 c 233.621 2.315 233.559 1.362 233.48 1.065 
c 233.387 0.721 233.168 0.534 232.871 0.534 c 232.605 0.534 232.402 0.69
 232.309 0.971 c 232.199 1.252 232.121 2.206 232.121 3.221 c 232.121 4.112
 232.184 5.081 232.262 5.377 c 232.355 5.737 232.574 5.909 232.871 5.909
 c h
232.871 5.909 m f
236 71.475 0.25 -16.102 re S
236 71.475 0.25 -16.102 re f
76.301 50.557 m 76.301 50.354 76.238 50.151 76.098 49.995 c 75.691 49.495
 74.754 48.916 74.02 48.448 c 73.285 47.963 72.348 47.354 71.738 47.166 
c 71.66 47.151 71.566 47.151 71.488 47.151 c 71.082 47.151 70.66 47.495 
70.66 47.963 c 70.66 48.166 70.738 48.37 70.879 48.526 c 71.27 49.026 72.207
 49.604 72.941 50.073 c 73.691 50.557 74.598 51.166 75.223 51.354 c 75.301
 51.37 75.379 51.37 75.457 51.37 c 75.879 51.37 76.301 51.026 76.301 50.557
 c h
75.285 51.995 m 73.785 51.995 72.582 51.713 71.52 50.995 c 70.863 50.557
 70.473 49.838 70.238 49.088 c 70.113 48.698 70.02 48.338 70.02 47.963 c
 70.02 46.948 70.754 46.51 71.691 46.51 c 73.191 46.51 74.363 46.807 75.441
 47.526 c 76.098 47.963 76.488 48.682 76.738 49.432 c 76.848 49.823 76.926
 50.182 76.926 50.557 c 76.926 51.573 76.223 51.995 75.285 51.995 c h
75.285 51.995 m f
59.945 52.01 m 59.133 52.01 58.336 51.713 57.617 51.291 c 56.68 50.729 
55.57 49.76 55.57 48.323 c 55.57 47.088 56.633 46.51 57.742 46.51 c 58.555
 46.51 59.352 46.807 60.07 47.229 c 61.008 47.791 62.117 48.76 62.117 50.198
 c 62.117 51.432 61.07 52.01 59.945 52.01 c h
59.945 52.01 m f
1 g
56.062 21.272 4.934 -6.293 re f
0 g
58.562 21.307 m 57.25 21.307 56.297 19.979 56.297 18.166 c 56.297 16.354
 57.25 15.026 58.562 15.026 c 59.844 15.026 60.812 16.354 60.812 18.12 c
 60.812 19.151 60.578 19.916 60.062 20.557 c 59.656 21.057 59.141 21.307
 58.562 21.307 c h
58.547 20.854 m 58.812 20.854 59.016 20.698 59.125 20.432 c 59.234 20.135
 59.297 19.198 59.297 18.151 c 59.297 17.26 59.234 16.307 59.156 16.01 c
 59.062 15.666 58.844 15.479 58.547 15.479 c 58.281 15.479 58.078 15.635
 57.984 15.916 c 57.875 16.198 57.797 17.151 57.797 18.166 c 57.797 19.057
 57.859 20.026 57.938 20.323 c 58.031 20.682 58.25 20.854 58.547 20.854 
c h
58.547 20.854 m f
61.676 66.495 0.25 -16.102 re S
61.676 66.495 0.25 -16.102 re f
1 g
70.512 21.272 4.934 -6.293 re f
0 g
73.012 21.307 m 71.699 21.307 70.746 19.979 70.746 18.166 c 70.746 16.354
 71.699 15.026 73.012 15.026 c 74.293 15.026 75.262 16.354 75.262 18.12 
c 75.262 19.151 75.027 19.916 74.512 20.557 c 74.105 21.057 73.59 21.307
 73.012 21.307 c h
72.996 20.854 m 73.262 20.854 73.465 20.698 73.574 20.432 c 73.684 20.135
 73.746 19.198 73.746 18.151 c 73.746 17.26 73.684 16.307 73.605 16.01 c
 73.512 15.666 73.293 15.479 72.996 15.479 c 72.73 15.479 72.527 15.635 
72.434 15.916 c 72.324 16.198 72.246 17.151 72.246 18.166 c 72.246 19.057
 72.309 20.026 72.387 20.323 c 72.48 20.682 72.699 20.854 72.996 20.854 
c h
72.996 20.854 m f
76.496 66.491 0.246 -15.73 re S
76.496 66.491 0.246 -15.73 re f
101.152 54.502 m 100.34 54.502 99.543 54.206 98.824 53.784 c 97.887 53.221
 96.777 52.252 96.777 50.815 c 96.777 49.581 97.84 49.002 98.949 49.002 
c 99.762 49.002 100.559 49.299 101.277 49.721 c 102.215 50.284 103.324 51.252
 103.324 52.69 c 103.324 53.924 102.277 54.502 101.152 54.502 c h
101.152 54.502 m f
1 g
97.27 21.272 4.934 -6.293 re f
0 g
100.504 21.135 m 100.191 21.135 l 99.66 20.729 99.02 20.557 97.988 20.541
 c 97.988 20.057 l 98.363 20.057 l 99.129 20.041 99.129 20.041 99.129 19.323
 c 99.129 16.229 l 99.129 15.698 99.129 15.651 99.066 15.573 c 98.988 15.479
 98.816 15.448 98.348 15.448 c 98.066 15.448 l 98.066 14.979 l 101.535 14.979
 l 101.535 15.448 l 101.27 15.448 l 100.816 15.448 100.629 15.479 100.566
 15.573 c 100.504 15.651 100.504 15.682 100.504 16.229 c h
100.504 21.135 m f
47.754 71.475 0.246 -16.102 re S
47.754 71.475 0.246 -16.102 re f
0.498132 w
0.25 69.182 0.297 -66.004 re S
0.25 69.182 0.297 -66.004 re f
46.02 56.991 m 45.207 56.991 44.41 56.694 43.691 56.272 c 42.754 55.709
 41.645 54.741 41.645 53.303 c 41.645 52.069 42.707 51.491 43.816 51.491
 c 44.629 51.491 45.426 51.788 46.145 52.209 c 47.082 52.772 48.191 53.741
 48.191 55.178 c 48.191 56.413 47.145 56.991 46.02 56.991 c h
46.02 56.991 m f
9.582 41.584 m 9.598 42.444 l 9.52 42.444 l 8.551 42.444 7.707 42.959 7.191
 43.741 c 7.395 43.663 7.598 43.616 7.816 43.616 c 8.848 43.616 9.707 44.475
 9.707 45.522 c 9.707 46.631 8.895 47.569 7.816 47.569 c 6.629 47.569 5.582
 46.678 5.582 45.522 c 5.582 43.35 7.316 41.584 9.457 41.584 c h
13.473 50.194 m 13.191 52.647 12.754 54.944 12.27 57.256 c 14.41 57.022
 15.723 55.256 15.723 53.459 c 15.723 52.084 14.816 50.678 13.473 50.194
 c h
5.754 54.803 m 5.754 57.991 7.863 60.413 10.004 62.834 c 10.348 61.678 
10.645 60.491 10.926 59.334 c 8.895 58.881 7.738 57.163 7.738 55.413 c 7.738
 54.022 8.473 52.584 10.066 51.725 c 10.129 51.709 10.176 51.694 10.238 
51.694 c 10.488 51.694 10.676 51.913 10.676 52.131 c 10.676 52.225 10.645
 52.334 10.535 52.428 c 9.426 53.069 8.926 54.006 8.926 54.881 c 8.926 56.038
 9.816 57.084 11.395 57.256 c 11.91 54.881 12.379 52.522 12.645 49.991 c
 12.113 49.913 11.582 49.881 11.02 49.881 c 8.332 49.881 5.754 52.116 5.754
 54.803 c h
10.957 49.022 m 11.582 49.022 12.16 49.084 12.738 49.178 c 12.785 48.569
 12.816 47.959 12.816 47.35 c 12.816 46.991 12.785 46.616 12.77 46.256 c
 12.645 44.288 11.457 42.491 9.598 42.444 c 9.582 41.584 l 11.848 41.647
 13.473 43.756 13.613 46.131 c 13.629 46.506 13.645 46.913 13.645 47.288
 c 13.645 47.991 13.613 48.678 13.551 49.381 c 14.066 49.538 14.566 49.756
 15.004 50.1 c 16.473 51.209 17.129 52.772 17.129 54.288 c 17.129 56.928
 15.129 59.475 12.035 59.475 c 11.957 59.475 11.848 59.459 11.77 59.459 
c 11.441 60.834 11.082 62.225 10.66 63.584 c 12.535 65.756 14.238 67.991
 14.238 70.834 c 14.238 73.084 13.004 76.288 11.598 77.975 c 11.473 78.069
 11.316 78.069 11.191 77.975 c 9.332 76.616 8.223 74.444 8.223 72.147 c 
8.223 71.116 8.254 70.084 8.363 69.038 c 8.535 67.741 8.895 66.491 9.27 
65.256 c 6.941 62.569 4.332 59.991 4.332 56.475 c 4.332 52.444 7.207 49.022
 10.957 49.022 c h
12.816 72.491 m 12.816 69.975 11.504 67.959 9.91 66.038 c 9.551 67.256 
9.191 68.428 9.191 69.897 c 9.191 72.084 10.441 74.1 12.41 75.053 c 12.738
 74.069 12.816 73.584 12.816 72.491 c h
12.816 72.491 m f
32.363 59.752 m 33.098 59.752 33.691 60.393 33.691 61.19 c 33.691 61.268
 33.691 61.377 33.676 61.471 c 33.379 63.19 31.926 64.44 30.191 64.44 c 
28.832 64.44 27.457 64.049 26.52 63.065 c 25.551 62.049 25.207 60.643 25.207
 59.221 c 25.207 57.799 25.551 56.393 26.52 55.377 c 27.457 54.393 28.832
 53.987 30.191 53.987 c 31.738 53.987 33.832 55.581 33.832 57.456 c 33.832
 57.612 33.691 57.69 33.566 57.69 c 33.473 57.69 33.379 57.627 33.332 57.487
 c 32.957 55.877 31.785 54.487 30.191 54.487 c 28.082 54.487 27.941 55.956
 27.941 58.206 c 27.941 60.237 l 27.941 62.487 28.082 63.94 30.191 63.94
 c 31.145 63.94 32.02 63.502 32.582 62.768 c 32.473 62.784 32.379 62.784
 32.301 62.784 c 31.41 62.784 30.863 62.002 30.863 61.252 c 30.863 60.596
 31.379 59.752 32.363 59.752 c h
32.363 59.752 m f
1 g
42.137 6.327 4.934 -6.293 re f
0 g
44.637 6.362 m 43.324 6.362 42.371 5.034 42.371 3.221 c 42.371 1.409 43.324
 0.081 44.637 0.081 c 45.918 0.081 46.887 1.409 46.887 3.174 c 46.887 4.206
 46.652 4.971 46.137 5.612 c 45.73 6.112 45.215 6.362 44.637 6.362 c h
44.621 5.909 m 44.887 5.909 45.09 5.752 45.199 5.487 c 45.309 5.19 45.371
 4.252 45.371 3.206 c 45.371 2.315 45.309 1.362 45.23 1.065 c 45.137 0.721
 44.918 0.534 44.621 0.534 c 44.355 0.534 44.152 0.69 44.059 0.971 c 43.949
 1.252 43.871 2.206 43.871 3.221 c 43.871 4.112 43.934 5.081 44.012 5.377
 c 44.105 5.737 44.324 5.909 44.621 5.909 c h
44.621 5.909 m f
9.598 5.92 m 9.598 6.061 9.551 6.186 9.457 6.249 c 9.238 6.358 9.082 6.624
 9.082 6.92 c 9.082 7.514 9.707 8.061 10.488 8.311 c 10.301 7.233 10.129
 5.764 10.129 5.061 c 10.129 4.905 l 10.129 2.999 9.645 1.014 8.348 1.014
 c 7.77 1.014 7.457 1.467 7.051 1.717 c 7.02 1.764 6.973 1.764 6.91 1.764
 c 6.676 1.764 6.441 1.467 6.441 1.249 c 6.441 1.155 6.457 1.108 6.52 1.061
 c 7.066 0.686 7.551 -0.001 8.426 -0.001 c 9.926 -0.001 11.191 1.999 11.598
 4.03 c 11.77 4.967 12.176 7.17 12.395 8.42 c 13.27 8.249 13.988 7.795 13.988
 6.905 c 13.988 6.139 13.348 5.358 12.629 5.358 c 12.613 5.358 l 12.348 
5.358 12.254 5.108 12.254 4.889 c 12.254 4.733 12.301 4.561 12.41 4.561 
c 12.426 4.561 l 13.441 4.561 14.426 4.233 14.426 3.311 c 14.426 2.264 13.395
 1.467 12.535 1.467 c 12.191 1.467 11.879 1.577 11.66 1.874 c 11.613 1.936
 11.535 1.952 11.457 1.952 c 11.223 1.952 10.895 1.702 10.895 1.467 c 10.895
 1.405 10.926 1.342 10.957 1.295 c 11.52 0.561 12.301 0.264 13.113 0.264
 c 14.801 0.264 16.676 1.624 16.676 3.405 c 16.676 4.514 15.801 4.999 14.645
 5.233 c 15.395 5.702 16.02 6.405 16.02 7.42 c 16.02 9.03 13.801 9.467 11.738
 9.467 c 9.426 9.467 7.066 8.514 7.066 6.874 c 7.066 5.999 7.848 5.389 8.754
 5.389 c 9.145 5.389 9.598 5.452 9.598 5.92 c h
10.285 12.733 m 10.566 12.311 11.035 12.077 11.676 12.077 c 12.113 12.077
 12.785 12.155 12.785 12.655 c 12.785 12.811 12.738 12.952 12.629 12.952
 c 12.551 12.952 12.473 12.936 12.395 12.936 c 11.77 12.936 11.332 13.202
 11.113 13.592 c 11.738 14.249 12.316 14.905 12.848 15.608 c 12.957 14.295
 13.145 13.014 13.473 11.795 c 13.629 11.217 13.895 10.639 14.52 10.639 
c 15.176 10.639 15.676 11.139 16.254 11.327 c 16.441 11.374 16.504 11.545
 16.504 11.702 c 16.504 11.874 16.41 12.045 16.316 12.045 c 16.285 12.014
 l 15.926 11.905 15.535 11.639 15.223 11.639 c 14.863 11.639 14.801 11.92
 14.801 12.233 c 14.801 12.42 l 14.941 14.749 15.035 17.077 15.129 19.389
 c 15.145 19.436 15.16 19.467 15.16 19.514 c 15.16 19.827 14.598 20.124 
14.02 20.124 c 13.551 20.124 13.066 19.92 12.895 19.389 c 12.113 17.061 
10.613 14.733 8.629 12.702 c 8.113 12.155 7.488 11.624 6.816 11.624 c 6.41
 11.624 6.145 11.842 5.816 11.983 c 5.785 11.999 5.723 12.014 5.676 12.014
 c 5.395 12.014 5.176 11.686 5.176 11.467 c 5.176 11.374 5.223 11.295 5.285
 11.28 c 5.801 11.061 6.176 10.639 6.832 10.639 c 8.004 10.639 9.426 11.92
 10.285 12.733 c h
10.02 25.139 m 10.02 25.311 9.957 25.452 9.863 25.499 c 9.582 25.639 9.379
 25.999 9.379 26.358 c 9.379 27.342 10.613 27.764 11.629 27.764 c 11.66 
27.764 12.035 27.717 12.27 27.655 c 12.098 26.499 11.879 24.405 11.832 23.514
 c 11.77 22.061 11.254 20.53 10.145 20.53 c 9.504 20.53 9.113 21.139 8.645
 21.436 c 8.613 21.467 8.551 21.483 8.504 21.483 c 8.285 21.483 8.051 21.186
 8.051 20.967 c 8.051 20.889 8.066 20.827 8.129 20.78 c 8.801 20.342 9.379
 19.514 10.426 19.514 c 11.91 19.514 13.223 21.28 13.676 23.202 c 13.848
 24.03 14.191 25.858 14.363 27.045 c 14.629 26.967 14.941 26.92 15.238 26.92
 c 16.301 26.92 17.395 27.436 18.191 28.327 c 18.207 28.358 18.223 28.374
 18.223 28.42 c 18.223 28.577 17.988 28.795 17.77 28.795 c 17.707 28.795
 17.66 28.78 17.598 28.733 c 16.941 28.217 16.16 27.92 15.395 27.92 c 14.363
 27.92 12.973 28.733 11.988 28.733 c 9.863 28.733 7.379 28.233 7.379 26.342
 c 7.379 25.389 8.207 24.67 9.191 24.67 c 9.566 24.67 10.02 24.686 10.02
 25.139 c h
10.02 25.139 m f
0.398506 w
157.836 61.514 0.25 -16.102 re S
157.836 61.514 0.25 -16.102 re f
131.527 64.002 0.25 -15.734 re S
131.527 64.002 0.25 -15.734 re f
114.977 49.518 m 114.164 49.518 113.367 49.221 112.648 48.799 c 111.711
 48.237 110.602 47.268 110.602 45.831 c 110.602 44.596 111.664 44.018 112.773
 44.018 c 113.586 44.018 114.383 44.315 115.102 44.737 c 116.039 45.299 
117.148 46.268 117.148 47.706 c 117.148 48.94 116.102 49.518 114.977 49.518
 c h
114.977 49.518 m f
1 g
111.098 13.799 4.93 -6.293 re f
0 g
115.254 9.991 m 115.16 9.553 l 115.082 9.209 115.02 9.1 114.957 9.053 c
 114.863 8.991 114.848 8.991 114.301 8.991 c 112.613 8.991 l 112.926 9.241
 113.145 9.413 113.488 9.631 c 114.707 10.413 114.973 10.616 115.223 10.944
 c 115.52 11.334 115.691 11.788 115.691 12.209 c 115.691 13.131 114.785 
13.834 113.551 13.834 c 112.363 13.834 111.457 13.069 111.457 12.084 c 111.457
 11.475 111.801 11.084 112.316 11.084 c 112.77 11.084 113.051 11.366 113.051
 11.819 c 113.051 12.194 112.895 12.413 112.488 12.6 c 112.395 12.647 112.348
 12.694 112.348 12.772 c 112.348 13.053 112.816 13.35 113.254 13.35 c 113.863
 13.35 114.207 12.975 114.207 12.319 c 114.207 11.6 113.941 11.084 113.02
 10.1 c 112.035 9.084 111.691 8.678 111.27 8.053 c 111.27 7.647 l 111.488
 7.663 111.598 7.678 111.723 7.678 c 114.988 7.678 l 115.129 7.678 115.254
 7.663 115.52 7.647 c 115.723 9.991 l h
115.254 9.991 m f
131.332 48.065 m 131.332 47.862 131.27 47.659 131.129 47.502 c 130.723 
47.002 129.785 46.424 129.051 45.956 c 128.316 45.471 127.379 44.862 126.77
 44.674 c 126.691 44.659 126.598 44.659 126.52 44.659 c 126.113 44.659 125.691
 45.002 125.691 45.471 c 125.691 45.674 125.77 45.877 125.91 46.034 c 126.301
 46.534 127.238 47.112 127.973 47.581 c 128.723 48.065 129.629 48.674 130.254
 48.862 c 130.332 48.877 130.41 48.877 130.488 48.877 c 130.91 48.877 131.332
 48.534 131.332 48.065 c h
130.316 49.502 m 128.816 49.502 127.613 49.221 126.551 48.502 c 125.895
 48.065 125.504 47.346 125.27 46.596 c 125.145 46.206 125.051 45.846 125.051
 45.471 c 125.051 44.456 125.785 44.018 126.723 44.018 c 128.223 44.018 
129.395 44.315 130.473 45.034 c 131.129 45.471 131.52 46.19 131.77 46.94
 c 131.879 47.331 131.957 47.69 131.957 48.065 c 131.957 49.081 131.254 
49.502 130.316 49.502 c h
130.316 49.502 m f
1 g
125.547 13.799 4.93 -6.293 re f
0 g
129.703 9.991 m 129.609 9.553 l 129.531 9.209 129.469 9.1 129.406 9.053
 c 129.312 8.991 129.297 8.991 128.75 8.991 c 127.062 8.991 l 127.375 9.241
 127.594 9.413 127.938 9.631 c 129.156 10.413 129.422 10.616 129.672 10.944
 c 129.969 11.334 130.141 11.788 130.141 12.209 c 130.141 13.131 129.234
 13.834 128 13.834 c 126.812 13.834 125.906 13.069 125.906 12.084 c 125.906
 11.475 126.25 11.084 126.766 11.084 c 127.219 11.084 127.5 11.366 127.5
 11.819 c 127.5 12.194 127.344 12.413 126.938 12.6 c 126.844 12.647 126.797
 12.694 126.797 12.772 c 126.797 13.053 127.266 13.35 127.703 13.35 c 128.312
 13.35 128.656 12.975 128.656 12.319 c 128.656 11.6 128.391 11.084 127.469
 10.1 c 126.484 9.084 126.141 8.678 125.719 8.053 c 125.719 7.647 l 125.938
 7.663 126.047 7.678 126.172 7.678 c 129.438 7.678 l 129.578 7.678 129.703
 7.663 129.969 7.647 c 130.172 9.991 l h
129.703 9.991 m f
116.711 64.002 0.25 -16.098 re S
116.711 64.002 0.25 -16.098 re f
156.102 47.03 m 155.289 47.03 154.492 46.733 153.773 46.311 c 152.836 45.749
 151.727 44.78 151.727 43.342 c 151.727 42.108 152.789 41.53 153.898 41.53
 c 154.711 41.53 155.508 41.827 156.227 42.249 c 157.164 42.811 158.273 
43.78 158.273 45.217 c 158.273 46.452 157.227 47.03 156.102 47.03 c h
156.102 47.03 m f
1 g
152.223 13.799 4.93 -6.293 re f
0 g
154.719 13.834 m 153.406 13.834 152.453 12.506 152.453 10.694 c 152.453
 8.881 153.406 7.553 154.719 7.553 c 156 7.553 156.969 8.881 156.969 10.647
 c 156.969 11.678 156.734 12.444 156.219 13.084 c 155.812 13.584 155.297
 13.834 154.719 13.834 c h
154.703 13.381 m 154.969 13.381 155.172 13.225 155.281 12.959 c 155.391
 12.663 155.453 11.725 155.453 10.678 c 155.453 9.788 155.391 8.834 155.312
 8.538 c 155.219 8.194 155 8.006 154.703 8.006 c 154.438 8.006 154.234 8.163
 154.141 8.444 c 154.031 8.725 153.953 9.678 153.953 10.694 c 153.953 11.584
 154.016 12.553 154.094 12.85 c 154.188 13.209 154.406 13.381 154.703 13.381
 c h
154.703 13.381 m f
102.883 68.983 0.25 -16.102 re S
102.883 68.983 0.25 -16.102 re f
Q Q
showpage
%%Trailer
end restore
%%EOF
