\include "../ĉiea.ly"

\header {
  titolo-xx     = "Der Ententanz"
  titolo-he     = "ריקוד הציפורים"
  titolo-eo     = "Birdeta danco"
  komponisto-xx = ""
  komponisto-he = "ורנר תומס"
  komponisto-eo = "Werner Thomas"
  ikono         = "🐦"
}

\include "../titolo.ly"

melodio = {
   \key c \major
   \time 4/4
   \partial 8*6 { <g\4>8 <g\4>8 <a\1>8 <a\1>8 <e\2>8 <e\2>8 |}
   <g\4>4 <g\4>8 <g\4>8 <a\1>8 <a\1>8 <e\2>8 <e\2>8 |
   <g\4>4 <g\4>8 <g\4>8 <a\1>8 <a\1>8 <c'\1>8 <c'\1>8 |
   <b\1>4 <b\1>4 <a\1>4 <g\4>4 |
   <f\2>4 <f\2>8 <f\2>8 <g\4>8 <g\4>8 <d\3>8 <d\3>8 |
   \break
   <f\2>4 <f\2>8 <f\2>8 <g\4>8 <g\4>8 <d\3>8 <d\3>8 |
   <f\2>4 <f\2>8 <f\2>8 <g\4>8 <g\4>8 <b\1>8 <b\1>8 |
   <a\1>4 <a\1>4 <g\4>4 <f\2>4 |
   <e\2>4 <g\4>8 <g\4>8 <a\1>8 <a\1>8 <e\2>8 <e\2>8 |
   \break
   <g\4>4 <g\4>8 <g\4>8 <a\1>8 <a\1>8 <e\2>8 <e\2>8 |
   <g\4>4 <g\4>8 <g\4>8 <a\1>8 <a\1>8 <c'\1>8 <c'\1>8 |
   <b\1>4 <b\1>4 <a\1>4 <g\4>4 |
   <f\2>4 <f\2>8 <f\2>8 <g\4>8 <g\4>8 <d\3>8 <d\3>8 |
   \break
   <f\2>4 <f\2>8 <f\2>8 <g\4>8 <g\4>8 <d\3>8 <d\3>8 |
   <f\2>4 <g\4>8 <g\4>8 <a\1>8 <a\1>8 <b\1>8 <b\1>8 |
   <c'~\1>1 |
   <c'\1>4 <g\4>4 <fis\2>4 <f\2>4 |
   \break
   <e\2>2. <g\4>4 |
   <e'\1>2. <d'\1>4 |
   <d'\1>2 <c'~\1>2 |
   <c'\1>4 <g\4>4 <fis\2>4 <f\2>4 |
   <e\2>2. <g\4>4 |
   <d'\1>2. <c'\1>4 |
   <b~\1>1 |
   <b\1>4 <a\1>4 <g\4>4 <fis\2>4 |
   \break
   <f\2>2. <g\4>4 |
   <d'\1>2. <c'\1>4 |
   <c'\1>2 <b~\1>2 |
   <b\1>4 <d'\1>4 <d'\1>4 <c'\1>4 |
   <c'\1>2 <b~\1>2 |
   <b\1>4 <b\1>4 <c'\1>4 <d'\1>4 |
   <c'\1>1 |
   \bar "|."
}

\include "../muziko.ly"
