\include "../ĉiea.ly"

\header {
  titolo-xx     = "Ah~! vous dirai-je, maman"
  titolo-he     = "שאגיד לך, אמא?"
  titolo-eo     = "ABC"
  komponisto-xx = ""
  komponisto-he = ""
  komponisto-eo = ""
  ikono         = "🔤"
}

\include "../titolo.ly"

melodio = {
   \key c \major
   \time 4/4
   <c\3>4 <c\3>4 <g\4>4 <g\4>4 
   <a\1>4 <a\1>4 <g\4>2 
   <f\2>4 <f\2>4 <e\2>4 <e\2>4 
   <d\3>4 <d\3>4 <c\3>2 
   \break
   <g\4>4 <g\4>4 <f\2>4 <f\2>4 
   <e\2>4 <e\2>4 <d\3>2 
   <g\4>4 <g\4>4 <f\2>4 <f\2>4 
   <e\2>4 <e\2>4 <d\3>2 
   \break
   <c\3>4 <c\3>4 <g\4>4 <g\4>4 
   <a\1>4 <a\1>4 <g\4>2 
   <f\2>4 <f\2>4 <e\2>4 <e\2>4 
   <d\3>4 <d\3>4 <c\3>2 
   \bar "|."
 }

\include "../muziko.ly"
