\include "../ĉiea.ly"

\header {
  titolo-xx     = ""
  titolo-he     = "למה לובשת הזברה פיז'מה?"
  titolo-eo     = "Kial la zebro surhavas piĵamon?"
  komponisto-xx = ""
  komponisto-he = "דובי זלצר"
  komponisto-eo = "Dubi Zelcer"
  ikono         = "📅"
}

\include "../titolo.ly"

melodio = {
   \key f \major
   \time 3/4
   <c\3>8 <c\3>8 <c'\1>8 <c'\1>8 <c'\1>8 <c'\1>8 
   <c'\1>8 <c'\1>8 <c'\1>8 <a\1>4 <a\1>8 
   <g\4>8 <g\4>8 <g\4>8 <g\4>8 <f\2>8 <e\2>8 
   <g\4>8 <g\4>4. r4 
   r2 <c\3>4 
   \time 4/4
   \break
   \repeat volta 5 {
	  \mark \markup {"×5"}
      <c\3>8 <a\1>8 <a\1>4 <g\4>8 <f\2>8 <c\3>4 
      <c\3>8 <d\3>4 <f\2>4 <e\2>8 <g\4>4 
      <c\3>8 <g\4>8 <g\4>8 <g\4>8 <f\2>8 <e\2>8 <c\3>4 
      <c\3>8 <g\4>4 <g\4>8 <a\1>8 <bes\1>4 <a\1>8 
      <bes\1>8 <c'\1>8 <e\2>8 <e\2>8 <e\2>8 <f\2>4. 
	  \break
      <f\2>8 <f\2>8 <d\3>4 <f\2>4 <c\3>4 
      <f\2>8 <f\2>8 <g\4>8 <e\2>8 <f\2>8 <g\4>8 <a\1>4 
      <g\4>8 <a\1>8 <bes\1>4 <a\1>8 <bes\1>8 <c'\1>4 
      <bes\1>4 <a\1>8 <f\2>4 <f\2>8 <bes\1>8 <bes\1>8 
      <bes\1>8 <a\1>8 <g\4>8 <g\4>8 <e>8 <e\2>8 <f\2>4 
   }
   \break
   <c\3>8 <a\1>8 <a\1>4 <g\4>8 <f\2>4. 
   <c\3>8 <d\3>4 <f\2>4 <e\2>8 <g\4>4 
   <c\3>8 <c\3>8 <g\4>8 g8\4 <g\4>8 g4\4 <f\2>8 
   <e\2>8 <c\3>4. <c\3>8 <g\4>4. 
   <g\4>8 <f\2>8 <e\2>8 <c\3>4. <c\3>8 <c\3>8 
   <bes\1>4 <bes\1>8 <bes\1>16 <bes\1>16 <bes\1>8 <a\1>8 <g\4>4 
   <c\3>8 <bes\1>4 <a\1>8 <bes\1>8 <c'\1>8 <bes\1>8 <a\1>8 
   <c'\1>8 <bes\1>8 <a\1>8 <g\4>2 r8 
   <f\2>4 <d\3>4 <f\2>4 <c\3>4 
   <f\2>8 <f\2>8 <g\4>8 <e\2>8 <f\2>8 <g\4>8 <a\1>4 
   <g\4>8 <a\1>8 <bes\1>4 <a\1>8 <bes\1>8 <c'\1>4 
   <bes\1>4 <a\1>8 <f\2>4 <f\2>8 <bes\1>8 <bes\1>8 
   <bes\1>8 <a\1>8 <g\4>8 <g\4>8 <g\4>8 <e\2>8 <f\2>8 <f~\2>8 
   <f\2>8 <f\2>4 r4 <c\3>4 r8
   \time 3/4
   <c\3>8 <c\3>8 <c'\1>8 <c'\1>8 <c'\1>8 <c'\1>8 
   <c'\1>8 <c'\1>8 <c'\1>8 <a\1>4 <a\1>8 
   <g\4>8 <g\4>8 <g\4>8 <g\4>8 <f\2>8 <e\2>8 
   <f\2>8 <f\2>2 r8 
   \bar "|."
}

\include "../muziko.ly"
