\include "../ĉiea.ly"

\header {
  titolo-xx     = "La Rosa Enflorece"
  titolo-he     = "השושן הפורח"
  titolo-eo     = "La ekfloranta rozo"
  komponisto-xx = ""
  komponisto-he = ""
  komponisto-eo = ""
  ikono         = "🌹"
}

\include "../titolo.ly"

melodio = {
  \time 4/4
  \tempo 4 = 80
  \key d \phrygiandominant
  \partial 8 d8                       | 
  g4.\4 a8 bes8.\4 a16 g8\4 bes       | 
  a8. g16\4 fis8 ees d4. d8           | 
  g4.\4 a8 bes8.\4 a16 g8\4 bes       | 
  a2 r4 a8\4 bes                      | 
  \break
  \repeat volta 2 {
  c'8. a16 a8\4 c' bes8. a16 g8\4 bes | 
  a g\4 fis ees d4. d8                | 
  fis ees4 d8 c d ees fis             | 
  }
  \alternative {
  { d8. ees16 fis8 g\4 a4 a8\4 bes    | }
  { d1                                | }
  }
  \bar "|."
}

\include "../muziko.ly"
