\include "../ĉiea.ly"

\header {
  titolo-xx     = \markup{\override #'(font-name . "Rutz_OE Bold"){באַריקאַדן}}
  titolo-he     = "לשדה יצוא יצאתי"
  titolo-eo     = "Barieroj"
  komponisto-xx = ""
  komponisto-he = ""
  komponisto-eo = ""
  ikono         = "🐎"
}

\include "../titolo.ly"

melodio = {
  \key c \major
  \time 4/4
  <d\3>8 <a\1>8 <a\1>8 <a\1>8 <a\1>8 <a\1>8 <a\1>8 <a\1>8 |
  <a\1>8 <g\4>8 <g\4>8 <f\2>8 <a\1>4 <a\1>8 r8 |
  \break
  <d\3>8 <a\1>8 <a\1>8 <a\1>8 <a\1>8 <a\1>8 <a\1>8 <a\1>8 |
  <a\1>8 <g\4>8 <g\4>8 <f\2>8 <f\2>4 <f\2>8 r8 |
  \break
  <d\3>8 <g\4>8 <d\3>8 <g\4>8 <f\2>8 <f\2>8 <f\2>8 r8 |
  <f\2>8 <e\2>8 <e\2>8 <d\3>8 <f\2>4 <f\2>8 r8 |
  \break
  <d\3>8 <g\4>8 <d\3>8 <g\4>8 <f\2>8 <f\2>8 <f\2>8 r8 |
  <f\2>8 <e\2>8 <e\2>8 <d\3>8 <d\3>4 <d\3>4 |
  \bar "|."
}

\include "../muziko.ly"
